{
  "resource": {
    "aws_iam_role": {
      "default": {
        "name": "${replace(var.domain_name,\".\",\"-\")}-monitoring",
        "assume_role_policy": "${data.aws_iam_policy_document.enhanced_monitoring.json}"
      }
    },
    "aws_iam_role_policy_attachment": {
      "default": {
        "role": "${aws_iam_role.default.name}",
        "policy_arn": "arn:aws:iam::aws:policy/service-role/AmazonRDSEnhancedMonitoringRole"
      }
    }
  }
}
