{
  "resource": {
    "aws_cloudwatch_metric_alarm": {
      "burst_balance_too_low": {
        "alarm_name": "${replace(var.domain_name,\".\",\"-\")}-burst-balance-too-low",
        "comparison_operator": "LessThanThreshold",
        "evaluation_periods": "1",
        "metric_name": "BurstBalance",
        "namespace": "AWS/RDS",
        "period": "600",
        "statistic": "Average",
        "threshold": "${local.thresholds[\"BurstBalanceThreshold\"]}",
        "alarm_description": "Average database storage burst balance over last 10 minutes too low, expect a significant performance drop soon",
        "alarm_actions": ["${aws_sns_topic.default.arn}"],
        "ok_actions": ["${aws_sns_topic.default.arn}"],

        "dimensions": {
          "DBInstanceIdentifier": "${var.db_instance_id}"
        }
      }
    }
  }
}
