{
  "locals": {
    "thresholds": {
      "BurstBalanceThreshold": "${min(max(var.burst_balance_threshold, 0), 100)}",
      "CPUUtilizationThreshold": "${min(max(var.cpu_utilization_threshold, 0), 100)}",
      "CPUCreditBalanceThreshold": "${max(var.cpu_credit_balance_threshold, 0)}",
      "DiskQueueDepthThreshold": "${max(var.disk_queue_depth_threshold, 0)}",
      "FreeableMemoryThreshold": "${max(var.freeable_memory_threshold, 0)}",
      "FreeStorageSpaceThreshold": "${max(var.free_storage_space_threshold, 0)}",
      "SwapUsageThreshold": "${max(var.swap_usage_threshold, 0)}"
    }
  }
}
